<?xml version="1.0" encoding="UTF-8" standalone="no"?>
<!-- Copyright 2021-2022 Teemu Ikonen -->
<!-- SPDX-License-Identifier: GPL-3.0-only -->
<svg
   xmlns:dc="http://purl.org/dc/elements/1.1/"
   xmlns:cc="http://creativecommons.org/ns#"
   xmlns:rdf="http://www.w3.org/1999/02/22-rdf-syntax-ns#"
   xmlns:svg="http://www.w3.org/2000/svg"
   xmlns="http://www.w3.org/2000/svg"
   xmlns:sodipodi="http://sodipodi.sourceforge.net/DTD/sodipodi-0.dtd"
   xmlns:inkscape="http://www.inkscape.org/namespaces/inkscape"
   width="24"
   height="24"
   id="svg4460"
   version="1.1"
   inkscape:version="1.0.2 (e86c870879, 2021-01-15)"
   sodipodi:docname="satnew.svg">
  <defs
     id="defs4462" />
  <sodipodi:namedview
     id="base"
     pagecolor="#ffffff"
     bordercolor="#666666"
     borderopacity="1.0"
     inkscape:pageopacity="0.0"
     inkscape:pageshadow="2"
     inkscape:zoom="25.969071"
     inkscape:cx="10.011902"
     inkscape:cy="6.3567958"
     inkscape:document-units="px"
     inkscape:current-layer="layer1"
     showgrid="false"
     showguides="true"
     inkscape:guide-bbox="true"
     inkscape:window-width="1867"
     inkscape:window-height="1043"
     inkscape:window-x="0"
     inkscape:window-y="0"
     inkscape:window-maximized="1"
     inkscape:document-rotation="0"
     inkscape:lockguides="true">
    <inkscape:grid
       type="xygrid"
       id="grid4468"
       empspacing="5"
       visible="true"
       enabled="true"
       snapvisiblegridlinesonly="true" />
    <sodipodi:guide
       orientation="1,0"
       position="0,20"
       id="guide4470"
       inkscape:locked="true" />
    <sodipodi:guide
       orientation="0,1"
       position="4,24"
       id="guide4472"
       inkscape:locked="true" />
    <sodipodi:guide
       orientation="1,0"
       position="24,13"
       id="guide4474"
       inkscape:locked="true" />
    <sodipodi:guide
       orientation="0,1"
       position="15,0"
       id="guide4476"
       inkscape:locked="true" />
    <sodipodi:guide
       orientation="1,0"
       position="23,20"
       id="guide4478"
       inkscape:locked="true" />
    <sodipodi:guide
       orientation="0,1"
       position="20,23"
       id="guide4480"
       inkscape:locked="true" />
    <sodipodi:guide
       orientation="1,0"
       position="2,5"
       id="guide4482"
       inkscape:locked="true" />
    <sodipodi:guide
       orientation="0,1"
       position="7,2"
       id="guide4484"
       inkscape:locked="true" />
    <sodipodi:guide
       orientation="0,1"
       position="16,13"
       id="guide4490"
       inkscape:locked="true" />
  </sodipodi:namedview>
  <metadata
     id="metadata4465">
    <rdf:RDF>
      <cc:Work
         rdf:about="">
        <dc:format>image/svg+xml</dc:format>
        <dc:type
           rdf:resource="http://purl.org/dc/dcmitype/StillImage" />
        <dc:title></dc:title>
      </cc:Work>
    </rdf:RDF>
  </metadata>
  <g
     inkscape:label="Layer 1"
     inkscape:groupmode="layer"
     id="layer1"
     transform="translate(0,-1028.3622)">
    <rect
       style="fill:#555753;stroke-width:0.95"
       id="rect41"
       width="8.5500002"
       height="5.6999998"
       x="732.18304"
       y="723.6546"
       transform="rotate(45)" />
    <rect
       style="fill:#555753;stroke-width:0.95"
       id="rect41-6"
       width="8.5500002"
       height="5.6999998"
       x="747.38306"
       y="723.6546"
       transform="rotate(45)" />
    <rect
       style="fill:#babdb6;stroke-width:0.95"
       id="rect84"
       width="6.6500001"
       height="1.9"
       x="740.73303"
       y="725.55457"
       transform="rotate(45)" />
    <rect
       style="fill:#729fcf;stroke-width:0.95"
       id="rect88"
       width="4.75"
       height="10.45"
       x="741.68304"
       y="721.75458"
       transform="rotate(45)" />
    <path
       id="path94"
       style="fill:#d3d7cf;stroke-width:0.95"
       d="m 10.309043,1042.0214 a 4.75,4.75 0 0 0 -5.8253445,-0.7006 l 6.5246475,6.5246 a 4.75,4.75 0 0 0 -0.699303,-5.824 z" />
  </g>
</svg>
